…
## Tokenize and count most frequently used words

Now I am ready to utilize tidytext functions. I tokenize texts into
words, remove all words which contain non-alphabetical characters

``` r
erp_text <- erp_text_raw_df %>% 
  unnest_tokens(word, text) %>% 
  mutate(word = str_remove_all(word, "[^A-Za-z ]")) %>%
  filter(word != "")

erp_text
```

    ## # A tibble: 5,880,967 x 4
    ##     page  line  year word       
    ##    <int> <int> <int> <chr>      
    ##  1     1     1  1947 the        
    ##  2     1     1  1947 economic   
    ##  3     1     1  1947 report     
    ##  4     1     1  1947 of         
    ##  5     1     1  1947 the        
    ##  6     1     1  1947 president  
    ##  7     1     1  1947 transmitted
    ##  8     1     1  1947 to         
    ##  9     1     1  1947 the        
    ## 10     1     1  1947 congress   
    ## # … with 5,880,957 more rows

I count words. The result is uninteresting.

``` r
erp_text  %>%
  count(word, sort = TRUE) 
```

    ## # A tibble: 112,180 x 2
    ##    word       n
    ##    <chr>  <int>
    ##  1 the   379322
    ##  2 of    244032
    ##  3 and   175587
    ##  4 in    171352
    ##  5 to    157188
    ##  6 a      88192
    ##  7 for    66756
    ##  8 that   53841
    ##  9 is     45923
    ## 10 by     41013
    ## # … with 112,170 more rows

Next I exclude stop words which are “a”, “the”, and something like that.
The result is still boring, as I know the reports are about the economy.

``` r
erp_text  %>%
  anti_join(stop_words, by = "word")%>%
  count(word, sort = TRUE) 
```

    ## # A tibble: 111,533 x 2
    ##    word         n
    ##    <chr>    <int>
    ##  1 percent  31069
    ##  2 economic 22508
    ##  3 growth   20501
    ##  4 rate     17957
    ##  5 income   15871
    ##  6 tax      15520
    ##  7 federal  13010
    ##  8 rates    12169
    ##  9 labor    11924
    ## 10 prices   11834
    ## # … with 111,523 more rows
…
The highest score naturally goes to “covid” in 2021. The high score of
“https” is due to richer references in recent reports.

``` r
erp_textb <- erp_text %>% 
  count(year, word, sort = TRUE) %>% 
  bind_tf_idf(word, year, n) %>%
  arrange(desc(tf_idf))

erp_textb
```

    ## # A tibble: 554,117 x 6
    ##     year word         n      tf   idf  tf_idf
    ##    <int> <chr>    <int>   <dbl> <dbl>   <dbl>
    ##  1  2021 covid      464 0.00341  4.32 0.0147 
    ##  2  2020 opioids    295 0.00261  2.93 0.00766
    ##  3  2020 opioid     292 0.00259  2.93 0.00758
    ##  4  2018 cyber      351 0.00205  2.93 0.00601
    ##  5  2020 https      276 0.00245  2.12 0.00519
    ##  6  2021 https      274 0.00201  2.12 0.00426
    ##  7  2019 https      415 0.00191  2.12 0.00406
    ##  8  2021 pandemic   217 0.00159  2.53 0.00402
    ##  9  2018 https      316 0.00185  2.12 0.00391
    ## 10  1985 takeover    99 0.00122  2.93 0.00357
    ## # … with 554,107 more rows
…
