…
## Prepare cleaned-up texts and tidytext data

To refresh memory, I show some variables below.

erp\_text\_raw\_df is a data frame consisted of 4 colums: “year”,
“page”, “line”, “text”. “text” is not yet tidy.

``` r
erp_text_raw_df
```

    ## # A tibble: 696,915 x 4
    ##    text                                                         page  line  year
    ##    <chr>                                                       <int> <int> <int>
    ##  1 "                              The Economic Report"             1     1  1947
    ##  2 "                                  of the President"            1     2  1947
    ##  3 "                              TRANSMITTED TO THE CONGRESS"     1     3  1947
    ##  4 "                                     January 8, 1947"          1     4  1947
    ##  5 ""                                                              1     5  1947
    ##  6 ""                                                              1     6  1947
    ##  7 ""                                                              1     7  1947
    ##  8 ""                                                              1     8  1947
    ##  9 ""                                                              2     1  1947
    ## 10 ""                                                              2     2  1947
    ## # ... with 696,905 more rows

erp\_text is a data frame after “text” was tokenized into “word”. It has
4 colums: “year”, “page”, “line”, “word”.

``` r
erp_text
```

    ## # A tibble: 5,856,704 x 4
    ##     page  line  year word       
    ##    <int> <int> <int> <chr>      
    ##  1     1     1  1947 the        
    ##  2     1     1  1947 economic   
    ##  3     1     1  1947 report     
    ##  4     1     2  1947 of         
    ##  5     1     2  1947 the        
    ##  6     1     2  1947 president  
    ##  7     1     3  1947 transmitted
    ##  8     1     3  1947 to         
    ##  9     1     3  1947 the        
    ## 10     1     3  1947 congress   
    ## # ... with 5,856,694 more rows

pages\_pres is a data frame to show the page in which the president part
starts and ends. It has 4 colums: “year”, “start”, “end”, “n\_pages”. I
will do sentiment analysis only for this president part.

``` r
pages_pres
```

    ## # A tibble: 74 x 4
    ##     year start   end n_pages
    ##    <int> <dbl> <dbl>   <dbl>
    ##  1  1947    10    11       2
    ##  2  1948     9    18      10
    ##  3  1949     9    26      18
    ##  4  1950     9    25      17
    ##  5  1951     9    33      25
    ##  6  1952     9    39      31
    ##  7  1953     9    35      27
    ##  8  1954     4     6       3
    ##  9  1955     5     8       4
    ## 10  1956     5     8       4
    ## # ... with 64 more rows
…
I use “bing” to get sentimental words, which show either “positive” or
“negative”. Among the sentimental words, “benefits” appear most in the
president part of the economic report of the president.

``` r
sentiment_word_rank <- erp_text %>%
  inner_join(get_sentiments("bing"), by = "word") %>%
  count(word, sentiment, sort = TRUE) %>% 
  mutate(rank = rank(desc(n), ties.method = "random"))

sentiment_word_rank
```

    ## # A tibble: 3,134 x 4
    ##    word      sentiment     n  rank
    ##    <chr>     <chr>     <int> <int>
    ##  1 benefits  positive   6590     1
    ##  2 important positive   5556     2
    ##  3 work      positive   5457     3
    ##  4 well      positive   5319     4
    ##  5 decline   negative   4427     5
    ##  6 debt      negative   3373     6
    ##  7 support   positive   3135     7
    ##  8 recovery  positive   3115     8
    ##  9 available positive   3063     9
    ## 10 poverty   negative   3012    10
    ## # ... with 3,124 more rows
…
``` r
erp_bigrams <-   
  erp_text_raw_df %>%
  unnest_tokens(bigram, text, token = "ngrams", n = 2) %>% 
  drop_na(bigram)

erp_bigrams
```

    ## # A tibble: 5,573,938 x 4
    ##     page  line  year bigram         
    ##    <int> <int> <int> <chr>          
    ##  1     1     1  1947 the economic   
    ##  2     1     1  1947 economic report
    ##  3     1     1  1948 the economic   
    ##  4     1     1  1948 economic report
    ##  5     1     1  1949 the economic   
    ##  6     1     1  1949 economic report
    ##  7     1     1  1950 he economic    
    ##  8     1     1  1950 economic report
    ##  9     1     1  1951 the economic   
    ## 10     1     1  1951 economic report
    ## # ... with 5,573,928 more rows

Most frequently used bigrams are uninteresting, as they include stop
words.

``` r
erp_bigrams %>%
  count(bigram, sort = TRUE)
```

    ## # A tibble: 1,079,408 x 2
    ##    bigram            n
    ##    <chr>         <int>
    ##  1 of the        49200
    ##  2 in the        43634
    ##  3 to the        15051
    ##  4 and the       13362
    ##  5 united states  9088
    ##  6 for the        9050
    ##  7 the united     8871
    ##  8 by the         8731
    ##  9 on the         8616
    ## 10 percent of     7320
    ## # ... with 1,079,398 more rows
…
``` r
bigrams_separated <- erp_bigrams %>%
  separate(bigram, c("word1", "word2"), sep = " ")

bigrams_filtered <- bigrams_separated %>%
  filter(!word1 %in% stop_words$word) %>%
  filter(!word2 %in% stop_words$word)

bigrams_filtered %>% 
  count(word1, word2, sort = TRUE)
```

    ## # A tibble: 523,138 x 3
    ##    word1        word2        n
    ##    <chr>        <chr>    <int>
    ##  1 labor        force     3198
    ##  2 health       care      2528
    ##  3 economic     growth    2442
    ##  4 economic     report    2044
    ##  5 unemployment rate      1905
    ##  6 1            1         1856
    ##  7 social       security  1838
    ##  8 federal      reserve   1784
    ##  9 annual       rate      1777
    ## 10 labor        market    1771
    ## # ... with 523,128 more rows

What word follows “gross” most frequently? As Len Kiefer suspects,
“gross” is a part of technical terms, and should not be included in
the sentimental words.

``` r
bigrams_filtered %>%
  filter(word1 == "gross") %>%
  count(word2, sort = TRUE)
```

    ## # A tibble: 172 x 2
    ##    word2          n
    ##    <chr>      <int>
    ##  1 national     644
    ##  2 domestic     304
    ##  3 private      129
    ##  4 investment   108
    ##  5 income        50
    ##  6 saving        49
    ##  7 job           39
    ##  8 product       38
    ##  9 farm          23
    ## 10 business      21
    ## # ... with 162 more rows

What word precedes “benefits” most frequently? My suspicion is
confirmed.

``` r
bigrams_filtered %>%
  filter(word2 == "benefits") %>%
  count(word1, sort = TRUE)
```

    ## # A tibble: 674 x 2
    ##    word1            n
    ##    <chr>        <int>
    ##  1 security       203
    ##  2 economic       195
    ##  3 fringe         113
    ##  4 health         113
    ##  5 insurance       97
    ##  6 unemployment    96
    ##  7 net             84
    ##  8 retirement      69
    ##  9 ui              63
    ## 10 social          62
    ## # ... with 664 more rows
…
